<?xml version="1.0" encoding="UTF-8" standalone="no"?>
<!-- Created with Sodipodi ("http://www.sodipodi.com/") -->
<svg
   xmlns:dc="http://purl.org/dc/elements/1.1/"
   xmlns:cc="http://web.resource.org/cc/"
   xmlns:rdf="http://www.w3.org/1999/02/22-rdf-syntax-ns#"
   xmlns:svg="http://www.w3.org/2000/svg"
   xmlns="http://www.w3.org/2000/svg"
   xmlns:sodipodi="http://sodipodi.sourceforge.net/DTD/sodipodi-0.dtd"
   xmlns:inkscape="http://www.inkscape.org/namespaces/inkscape"
   version="1"
   x="0"
   y="0"
   width="125"
   height="125"
   id="svg101"
   sodipodi:version="0.32"
   inkscape:version="0.45.1"
   sodipodi:docname="cysteine.svg"
   sodipodi:docbase="/home/rusconi/devel/massxpert/data/pol-chem-defs/protein-1-letter"
   inkscape:output_extension="org.inkscape.output.svg.inkscape">
  <metadata
     id="metadata2361">
    <rdf:RDF>
      <cc:Work
         rdf:about="">
        <dc:format>image/svg+xml</dc:format>
        <dc:type
           rdf:resource="http://purl.org/dc/dcmitype/StillImage" />
      </cc:Work>
    </rdf:RDF>
  </metadata>
  <sodipodi:namedview
     inkscape:window-height="571"
     inkscape:window-width="745"
     inkscape:pageshadow="2"
     inkscape:pageopacity="0.0"
     guidetolerance="10.0"
     gridtolerance="10.0"
     objecttolerance="10.0"
     borderopacity="1.0"
     bordercolor="#666666"
     pagecolor="#ffffff"
     id="base"
     inkscape:zoom="3.024"
     inkscape:cx="62.5"
     inkscape:cy="62.5"
     inkscape:window-x="755"
     inkscape:window-y="0"
     inkscape:current-layer="svg101" />
  <defs
     id="defs103" />
  <path
     id="path311"
     style="font-size:26px;font-weight:bold;fill:#e2bd00;stroke-width:1pt;font-family:Helvetica"
     d="M 113.78637,44.642088 C 112.97754,35.415234 110.87461,29.556914 105.85991,23.552136 C 96.801097,12.714244 82.242296,6.7094663 64.60997,6.7094663 C 31.286304,6.7094663 10.580453,28.238792 10.580453,62.80288 C 10.580453,97.074052 31.12454,118.60338 63.962912,118.60338 C 93.242279,118.60338 112.81578,103.22529 114.27166,78.766802 L 90.654048,78.766802 C 89.198168,92.387396 79.654064,100.14967 64.60997,100.14967 C 45.845106,100.14967 34.845122,86.382618 34.845122,63.095796 C 34.845122,39.516058 46.330399,25.45609 65.418792,25.45609 C 73.830544,25.45609 80.786416,28.092334 85.315821,33.218364 C 87.904052,36.147524 89.198168,38.930226 90.654048,44.642088 L 113.78637,44.642088 z " />
</svg>
