<?xml version="1.0" encoding="UTF-8" standalone="no"?>
<!DOCTYPE svg PUBLIC "-//W3C//DTD SVG 20010904//EN"
"http://www.w3.org/TR/2001/REC-SVG-20010904/DTD/svg10.dtd"
[
 <!ATTLIST svg
  xmlns:xlink CDATA #FIXED "http://www.w3.org/1999/xlink">
]>
<!-- Created with Sodipodi ("http://www.sodipodi.com/") -->
<svg
   xmlns="http://www.w3.org/2000/svg"
   xmlns:xlink="http://www.w3.org/1999/xlink"
   version="1"
   x="0"
   y="0"
   width="125"
   height="125"
   id="svg101">
  <defs
     id="defs103" />
  <g
     style="font-size:12;"
     id="g131">
    <path
       d="M 6.2796 6.74281 L 6.2796 118.768 L 118.718 118.768 L 118.718 6.74281 L 6.2796 6.74281 z "
       style="fill:#999999;fill-rule:evenodd;stroke-width:0pt;"
       id="path130" />
    <path
       d="M 14.129 16.3199 L 15.377 20.1419 L 19.381 20.1419 L 12.829 1.1879 L 8.51298 1.1879 L 1.77898 20.1419 L 5.75698 20.1419 L 7.03098 16.3199 L 14.129 16.3199 z M 13.063 13.0699 L 8.12298 13.0699 L 10.593 5.6599 L 13.063 13.0699 z "
       transform="scale(5.90191,5.88718)"
       style="font-size:26;font-weight:bold;fill:#e2bd00;stroke-width:1pt;font-family:Helvetica;"
       id="path129" />
  </g>
</svg>
