<?xml version="1.0" encoding="UTF-8" standalone="no"?>
<!-- Created with Sodipodi ("http://www.sodipodi.com/") -->
<svg
   xmlns:dc="http://purl.org/dc/elements/1.1/"
   xmlns:cc="http://web.resource.org/cc/"
   xmlns:rdf="http://www.w3.org/1999/02/22-rdf-syntax-ns#"
   xmlns:svg="http://www.w3.org/2000/svg"
   xmlns="http://www.w3.org/2000/svg"
   xmlns:sodipodi="http://sodipodi.sourceforge.net/DTD/sodipodi-0.dtd"
   xmlns:inkscape="http://www.inkscape.org/namespaces/inkscape"
   version="1"
   x="0"
   y="0"
   width="100pt"
   height="100pt"
   id="svg101"
   sodipodi:version="0.32"
   sodipodi:docname="erythrose.svg"
   sodipodi:docbase="/home/rusconi/devel/massxpert/data/pol-chem-defs/saccharide"
   inkscape:version="0.44.1">
  <metadata
     id="metadata38">
    <rdf:RDF>
      <cc:Work
         rdf:about="">
        <dc:format>image/svg+xml</dc:format>
        <dc:type
           rdf:resource="http://purl.org/dc/dcmitype/StillImage" />
      </cc:Work>
    </rdf:RDF>
  </metadata>
  <sodipodi:namedview
     id="base"
     inkscape:zoom="5.2689208"
     inkscape:cx="51.932023"
     inkscape:cy="58.008759"
     inkscape:window-width="1187"
     inkscape:window-height="933"
     inkscape:window-x="0"
     inkscape:window-y="30"
     inkscape:current-layer="svg101"
     showguides="true"
     inkscape:guide-bbox="true">
    <sodipodi:guide
       orientation="horizontal"
       position="71.562508"
       id="guide147" />
    <sodipodi:guide
       orientation="vertical"
       position="62.062045"
       id="guide3149" />
  </sodipodi:namedview>
  <defs
     id="defs103" />
  <path
     style="font-size:12px;fill:#84c48c;fill-rule:evenodd;stroke-width:0pt"
     d="M 6.2796001,6.742805 L 118.71786,6.742805 L 118.71786,118.76839 L 6.2796001,118.76839 L 6.2796001,6.742805 z "
     id="inner-frame" />
  <path
     style="font-size:12px;font-style:normal;font-weight:normal;fill:black;fill-opacity:1;stroke:none;stroke-width:1px;stroke-linecap:butt;stroke-linejoin:miter;stroke-opacity:1;font-family:Bitstream Vera Sans"
     d="M 65.473083,16.876682 L 65.473083,18.124729 C 65.074639,17.753643 64.648858,17.476299 64.19574,17.292698 C 63.746515,17.109112 63.268,17.017315 62.760193,17.017307 C 61.760189,17.017315 60.994565,17.323956 60.463318,17.937229 C 59.932066,18.546611 59.666441,19.429422 59.666443,20.585667 C 59.666441,21.738014 59.932066,22.620825 60.463318,23.234104 C 60.994565,23.84348 61.760189,24.148167 62.760193,24.148167 C 63.268,24.148167 63.746515,24.056371 64.19574,23.872776 C 64.648858,23.689184 65.074639,23.41184 65.473083,23.040745 L 65.473083,24.277073 C 65.059014,24.558323 64.619561,24.769261 64.154724,24.909885 C 63.693781,25.05051 63.2055,25.120823 62.68988,25.120823 C 61.365658,25.120823 60.32269,24.716526 59.560974,23.907932 C 58.799254,23.095434 58.418395,21.988013 58.418396,20.585667 C 58.418395,19.179422 58.799254,18.072002 59.560974,17.263401 C 60.32269,16.45091 61.365658,16.04466 62.68988,16.044651 C 63.213312,16.04466 63.705499,16.114972 64.166443,16.255589 C 64.63128,16.392316 65.066826,16.599347 65.473083,16.876682 M 67.312927,16.202854 L 68.496521,16.202854 L 68.496521,19.788792 L 72.797302,19.788792 L 72.797302,16.202854 L 73.980896,16.202854 L 73.980896,24.950901 L 72.797302,24.950901 L 72.797302,20.784885 L 68.496521,20.784885 L 68.496521,24.950901 L 67.312927,24.950901 L 67.312927,16.202854 M 79.887146,17.005589 C 79.027767,17.005596 78.344174,17.325909 77.836365,17.966526 C 77.332456,18.607157 77.080503,19.480203 77.080505,20.585667 C 77.080503,21.687232 77.332456,22.558325 77.836365,23.198948 C 78.344174,23.839574 79.027767,24.159886 79.887146,24.159885 C 80.746515,24.159886 81.426202,23.839574 81.926208,23.198948 C 82.430107,22.558325 82.68206,21.687232 82.682068,20.585667 C 82.68206,19.480203 82.430107,18.607157 81.926208,17.966526 C 81.426202,17.325909 80.746515,17.005596 79.887146,17.005589 M 79.887146,16.044651 C 81.113703,16.04466 82.09417,16.456769 82.828552,17.280979 C 83.562919,18.101299 83.930106,19.20286 83.930115,20.585667 C 83.930106,21.964576 83.562919,23.066137 82.828552,23.890354 C 82.09417,24.710667 81.113703,25.120823 79.887146,25.120823 C 78.656674,25.120823 77.6723,24.710667 76.934021,23.890354 C 76.199645,23.070044 75.832458,21.968482 75.832458,20.585667 C 75.832458,19.20286 76.199645,18.101299 76.934021,17.280979 C 77.6723,16.456769 78.656674,16.04466 79.887146,16.044651"
     id="text1902" />
  <path
     style="font-size:12px;font-style:normal;font-weight:normal;fill:black;fill-opacity:1;stroke:none;stroke-width:1px;stroke-linecap:butt;stroke-linejoin:miter;stroke-opacity:1;font-family:Bitstream Vera Sans"
     d="M 84.36319,69.993187 C 83.503811,69.993195 82.820218,70.313507 82.312408,70.954124 C 81.8085,71.594756 81.556547,72.467802 81.556549,73.573265 C 81.556547,74.674831 81.8085,75.545924 82.312408,76.186546 C 82.820218,76.827172 83.503811,77.147485 84.36319,77.147484 C 85.222559,77.147485 85.902246,76.827172 86.402252,76.186546 C 86.906151,75.545924 87.158104,74.674831 87.158112,73.573265 C 87.158104,72.467802 86.906151,71.594756 86.402252,70.954124 C 85.902246,70.313507 85.222559,69.993195 84.36319,69.993187 M 84.36319,69.032249 C 85.589746,69.032258 86.570214,69.444367 87.304596,70.268578 C 88.038963,71.088897 88.40615,72.190458 88.406158,73.573265 C 88.40615,74.952174 88.038963,76.053736 87.304596,76.877953 C 86.570214,77.698265 85.589746,78.108421 84.36319,78.108421 C 83.132717,78.108421 82.148343,77.698265 81.410065,76.877953 C 80.675689,76.057642 80.308502,74.956081 80.308502,73.573265 C 80.308502,72.190458 80.675689,71.088897 81.410065,70.268578 C 82.148343,69.444367 83.132717,69.032258 84.36319,69.032249 M 90.257721,69.190453 L 91.441315,69.190453 L 91.441315,72.77639 L 95.742096,72.77639 L 95.742096,69.190453 L 96.92569,69.190453 L 96.92569,77.938499 L 95.742096,77.938499 L 95.742096,73.772484 L 91.441315,73.772484 L 91.441315,77.938499 L 90.257721,77.938499 L 90.257721,69.190453"
     id="text1914" />
  <path
     style="font-size:12px;font-style:normal;font-weight:normal;fill:black;fill-opacity:1;stroke:none;stroke-width:1px;stroke-linecap:butt;stroke-linejoin:miter;stroke-opacity:1;font-family:Bitstream Vera Sans"
     d="M 37.304668,69.562981 L 38.488262,69.562981 L 38.488262,73.148918 L 42.789043,73.148918 L 42.789043,69.562981 L 43.972637,69.562981 L 43.972637,78.311028 L 42.789043,78.311028 L 42.789043,74.145012 L 38.488262,74.145012 L 38.488262,78.311028 L 37.304668,78.311028 L 37.304668,69.562981"
     id="text1926" />
  <path
     style="font-size:12px;font-style:normal;font-weight:normal;fill:black;fill-opacity:1;stroke:none;stroke-width:1px;stroke-linecap:butt;stroke-linejoin:miter;stroke-opacity:1;font-family:Bitstream Vera Sans"
     d="M 65.791717,98.857873 L 65.791717,100.10592 C 65.393272,99.734833 64.967492,99.457493 64.514374,99.273893 C 64.065149,99.090303 63.586634,98.998513 63.078827,98.998503 C 62.078823,98.998513 61.313198,99.305153 60.781952,99.918423 C 60.250699,100.5278 59.985075,101.41061 59.985077,102.56686 C 59.985075,103.7192 60.250699,104.60202 60.781952,105.21529 C 61.313198,105.82467 62.078823,106.12936 63.078827,106.12936 C 63.586634,106.12936 64.065149,106.03756 64.514374,105.85397 C 64.967492,105.67037 65.393272,105.39303 65.791717,105.02193 L 65.791717,106.25826 C 65.377647,106.53951 64.938195,106.75045 64.473358,106.89108 C 64.012414,107.0317 63.524134,107.10201 63.008514,107.10201 C 61.684292,107.10201 60.641324,106.69772 59.879608,105.88912 C 59.117888,105.07662 58.737029,103.9692 58.73703,102.56686 C 58.737029,101.16061 59.117888,100.05319 59.879608,99.244593 C 60.641324,98.432103 61.684292,98.025853 63.008514,98.025843 C 63.531946,98.025853 64.024133,98.096163 64.485077,98.236783 C 64.949913,98.373513 65.38546,98.580543 65.791717,98.857873 M 67.631561,98.184043 L 68.815155,98.184043 L 68.815155,101.76998 L 73.115936,101.76998 L 73.115936,98.184043 L 74.29953,98.184043 L 74.29953,106.93209 L 73.115936,106.93209 L 73.115936,102.76608 L 68.815155,102.76608 L 68.815155,106.93209 L 67.631561,106.93209 L 67.631561,98.184043 M 76.692466,110.1197 L 80.823326,110.1197 L 80.823326,111.11579 L 75.268638,111.11579 L 75.268638,110.1197 C 75.717856,109.65486 76.329183,109.03181 77.102623,108.25056 C 77.879963,107.4654 78.368244,106.95955 78.567466,106.73298 C 78.946368,106.3072 79.21004,105.94783 79.358482,105.65485 C 79.510821,105.35798 79.586993,105.06697 79.586998,104.78181 C 79.586993,104.31697 79.42293,103.93806 79.09481,103.64509 C 78.770587,103.35213 78.346759,103.20564 77.823326,103.20564 C 77.452229,103.20564 77.059651,103.2701 76.645591,103.39899 C 76.235433,103.52791 75.795981,103.72322 75.327232,103.98493 L 75.327232,102.78962 C 75.803793,102.59822 76.249105,102.45369 76.66317,102.35603 C 77.077229,102.25838 77.456135,102.20955 77.799888,102.20954 C 78.706134,102.20955 79.42879,102.43611 79.967857,102.88923 C 80.506913,103.34236 80.776444,103.94783 80.776451,104.70564 C 80.776444,105.06502 80.708085,105.40681 80.571373,105.73103 C 80.438554,106.05134 80.194414,106.43025 79.838951,106.86774 C 79.741289,106.98103 79.430743,107.30915 78.90731,107.85212 C 78.383869,108.39118 77.645588,109.14704 76.692466,110.1197 M 85.498588,98.983603 C 84.639209,98.983613 83.955616,99.303923 83.447807,99.944543 C 82.943899,100.58517 82.691946,101.45822 82.691948,102.56368 C 82.691946,103.66525 82.943899,104.53634 83.447807,105.17696 C 83.955616,105.81759 84.639209,106.1379 85.498588,106.1379 C 86.357958,106.1379 87.037645,105.81759 87.537651,105.17696 C 88.04155,104.53634 88.293503,103.66525 88.29351,102.56368 C 88.293503,101.45822 88.04155,100.58517 87.537651,99.944543 C 87.037645,99.303923 86.357958,98.983613 85.498588,98.983603 M 85.498588,98.022673 C 86.725145,98.022683 87.705613,98.434783 88.439995,99.259003 C 89.174361,100.07931 89.541548,101.18088 89.541557,102.56368 C 89.541548,103.94259 89.174361,105.04415 88.439995,105.86837 C 87.705613,106.68868 86.725145,107.09884 85.498588,107.09884 C 84.268116,107.09884 83.283742,106.68868 82.545463,105.86837 C 81.811087,105.04806 81.4439,103.9465 81.443901,102.56368 C 81.4439,101.18088 81.811087,100.07931 82.545463,99.259003 C 83.283742,98.434783 84.268116,98.022683 85.498588,98.022673 M 91.39312,98.180873 L 92.576713,98.180873 L 92.576713,101.76681 L 96.877495,101.76681 L 96.877495,98.180873 L 98.061089,98.180873 L 98.061089,106.92892 L 96.877495,106.92892 L 96.877495,102.7629 L 92.576713,102.7629 L 92.576713,106.92892 L 91.39312,106.92892 L 91.39312,98.180873"
     id="text1922" />
  <path
     style="font-size:12px;fill:none;fill-rule:evenodd;stroke:black;stroke-width:0.96485538pt"
     d="M 62.22477,26.171832 L 62.22477,97.265571"
     id="path3151" />
  <path
     style="font-size:12px;fill:none;fill-rule:evenodd;stroke:black;stroke-width:1pt"
     d="M 44.86715,73.5691 L 79.24215,73.5691"
     id="path3155" />
  <path
     style="font-size:12px;fill:none;fill-rule:evenodd;stroke:black;stroke-width:1pt"
     d="M 44.86715,51.45841 L 79.24215,51.45841"
     id="path3159" />
  <path
     style="font-size:12px;font-style:normal;font-weight:normal;fill:black;fill-opacity:1;stroke:none;stroke-width:1px;stroke-linecap:butt;stroke-linejoin:miter;stroke-opacity:1;font-family:Bitstream Vera Sans"
     d="M 37.114872,47.357304 L 38.298466,47.357304 L 38.298466,50.943241 L 42.599247,50.943241 L 42.599247,47.357304 L 43.782841,47.357304 L 43.782841,56.10535 L 42.599247,56.10535 L 42.599247,51.939335 L 38.298466,51.939335 L 38.298466,56.10535 L 37.114872,56.10535 L 37.114872,47.357304"
     id="text3323" />
  <path
     style="font-size:12px;font-style:normal;font-weight:normal;fill:black;fill-opacity:1;stroke:none;stroke-width:1px;stroke-linecap:butt;stroke-linejoin:miter;stroke-opacity:1;font-family:Bitstream Vera Sans"
     d="M 84.173401,47.977295 C 83.314022,47.977303 82.630429,48.297615 82.12262,48.938232 C 81.618711,49.578864 81.366758,50.45191 81.36676,51.557373 C 81.366758,52.658939 81.618711,53.530032 82.12262,54.170654 C 82.630429,54.81128 83.314022,55.131593 84.173401,55.131592 C 85.03277,55.131593 85.712457,54.81128 86.212463,54.170654 C 86.716362,53.530032 86.968315,52.658939 86.968323,51.557373 C 86.968315,50.45191 86.716362,49.578864 86.212463,48.938232 C 85.712457,48.297615 85.03277,47.977303 84.173401,47.977295 M 84.173401,47.016357 C 85.399957,47.016366 86.380425,47.428475 87.114807,48.252686 C 87.849174,49.073005 88.216361,50.174566 88.21637,51.557373 C 88.216361,52.936282 87.849174,54.037844 87.114807,54.862061 C 86.380425,55.682373 85.399957,56.092529 84.173401,56.092529 C 82.942929,56.092529 81.958555,55.682373 81.220276,54.862061 C 80.4859,54.04175 80.118713,52.940189 80.118713,51.557373 C 80.118713,50.174566 80.4859,49.073005 81.220276,48.252686 C 81.958555,47.428475 82.942929,47.016366 84.173401,47.016357 M 90.067932,47.174561 L 91.251526,47.174561 L 91.251526,50.760498 L 95.552307,50.760498 L 95.552307,47.174561 L 96.735901,47.174561 L 96.735901,55.922607 L 95.552307,55.922607 L 95.552307,51.756592 L 91.251526,51.756592 L 91.251526,55.922607 L 90.067932,55.922607 L 90.067932,47.174561"
     id="text3452" />
</svg>
