<?xml version="1.0" encoding="UTF-8" standalone="no"?>
<!-- Created with Sodipodi ("http://www.sodipodi.com/") -->
<svg
   xmlns:dc="http://purl.org/dc/elements/1.1/"
   xmlns:cc="http://web.resource.org/cc/"
   xmlns:rdf="http://www.w3.org/1999/02/22-rdf-syntax-ns#"
   xmlns:svg="http://www.w3.org/2000/svg"
   xmlns="http://www.w3.org/2000/svg"
   xmlns:sodipodi="http://sodipodi.sourceforge.net/DTD/sodipodi-0.dtd"
   xmlns:inkscape="http://www.inkscape.org/namespaces/inkscape"
   version="1"
   x="0"
   y="0"
   width="100pt"
   height="100pt"
   id="svg101"
   sodipodi:version="0.32"
   sodipodi:docname="fructose-text.svg"
   sodipodi:docbase="/home/rusconi/devel/massxpert/data/pol-chem-defs/saccharide"
   inkscape:version="0.44.1">
  <metadata
     id="metadata3718">
    <rdf:RDF>
      <cc:Work
         rdf:about="">
        <dc:format>image/svg+xml</dc:format>
        <dc:type
           rdf:resource="http://purl.org/dc/dcmitype/StillImage" />
      </cc:Work>
    </rdf:RDF>
  </metadata>
  <sodipodi:namedview
     id="base"
     inkscape:zoom="5.6920702"
     inkscape:cx="130.21229"
     inkscape:cy="64.646824"
     inkscape:window-width="1187"
     inkscape:window-height="939"
     inkscape:window-x="0"
     inkscape:window-y="30"
     inkscape:current-layer="svg101">
    <sodipodi:guide
       orientation="horizontal"
       position="71.678666"
       id="guide147" />
    <sodipodi:guide
       orientation="vertical"
       position="29.375"
       id="guide163" />
    <sodipodi:guide
       orientation="vertical"
       position="59.8438"
       id="guide164" />
  </sodipodi:namedview>
  <defs
     id="defs103" />
  <rect
     width="112.438263"
     height="112.025581"
     x="6.279600"
     y="6.742805"
     style="font-size:12;fill:#e395ad;fill-rule:evenodd;stroke-width:0pt;fill-opacity:1;"
     id="inner-frame" />
  <text
     xml:space="preserve"
     style="font-size:12px;font-style:normal;font-weight:normal;fill:black;fill-opacity:1;stroke:none;stroke-width:1px;stroke-linecap:butt;stroke-linejoin:miter;stroke-opacity:1;font-family:Bitstream Vera Sans"
     x="76.85527"
     y="42.542141"
     id="text3452"><tspan
       sodipodi:role="line"
       id="tspan3454"
       x="76.85527"
       y="42.542141">O</tspan></text>
  <g
     transform="translate(3.388253,8.402819)"
     id="g3734">
    <path
       id="path3736"
       d="M 56.384157,31.45841 L 73.24215,31.45841"
       style="font-size:12px;fill:none;fill-rule:evenodd;stroke:black;stroke-width:1pt"
       sodipodi:nodetypes="cc" />
    <path
       sodipodi:nodetypes="cc"
       style="font-size:12px;fill:none;fill-rule:evenodd;stroke:black;stroke-width:1pt"
       d="M 56.384157,27.45841 L 73.24215,27.45841"
       id="path3738" />
  </g>
  <path
     d="M 62.67506,17.48808 L 62.67506,18.736135 C 62.27662,18.365052 61.85084,18.087706 61.39772,17.904103 C 60.94849,17.72051 60.46998,17.62872 59.96217,17.62871 C 58.96217,17.62872 58.19654,17.935363 57.6653,18.548645 C 57.13404,19.158015 56.86842,20.040825 56.86842,21.197075 C 56.86842,22.349415 57.13404,23.232235 57.6653,23.845505 C 58.19654,24.454885 58.96217,24.759575 59.96217,24.759575 C 60.46998,24.759575 60.94849,24.667775 61.39772,24.484185 C 61.85084,24.300585 62.27662,24.023245 62.67506,23.652145 L 62.67506,24.888475 C 62.26099,25.169725 61.82154,25.380665 61.3567,25.521295 C 60.89576,25.661915 60.40748,25.732225 59.89186,25.732225 C 58.56764,25.732225 57.52467,25.327935 56.76295,24.519335 C 56.00123,23.706835 55.62037,22.599415 55.62037,21.197075 C 55.62037,19.790825 56.00123,18.683405 56.76295,17.874803 C 57.52467,17.06231 58.56764,16.65606 59.89186,16.65605 C 60.41529,16.65606 60.90748,16.72637 61.36842,16.86699 C 61.83326,17.00372 62.2688,17.21075 62.67506,17.48808 M 64.5149,16.81425 L 65.6985,16.81425 L 65.6985,20.400195 L 69.99928,20.400195 L 69.99928,16.81425 L 71.18287,16.81425 L 71.18287,25.562305 L 69.99928,25.562305 L 69.99928,21.396295 L 65.6985,21.396295 L 65.6985,25.562305 L 64.5149,25.562305 L 64.5149,16.81425 M 73.57581,28.749915 L 77.70667,28.749915 L 77.70667,29.746005 L 72.15198,29.746005 L 72.15198,28.749915 C 72.6012,28.285075 73.21253,27.662025 73.98597,26.880775 C 74.76331,26.095615 75.25159,25.589765 75.45081,25.363195 C 75.82971,24.937415 76.09338,24.578045 76.24183,24.285065 C 76.39416,23.988195 76.47034,23.697185 76.47034,23.412025 C 76.47034,22.947185 76.30627,22.568275 75.97815,22.275305 C 75.65393,21.982345 75.2301,21.835855 74.70667,21.835855 C 74.33557,21.835855 73.943,21.900315 73.52893,22.029205 C 73.11878,22.158125 72.67933,22.353435 72.21058,22.615145 L 72.21058,21.419835 C 72.68714,21.228435 73.13245,21.083905 73.54651,20.986245 C 73.96057,20.888595 74.33948,20.839765 74.68323,20.839755 C 75.58948,20.839765 76.31213,21.066325 76.8512,21.519445 C 77.39026,21.972575 77.65979,22.578045 77.65979,23.335855 C 77.65979,23.695235 77.59143,24.037025 77.45472,24.361245 C 77.3219,24.681555 77.07776,25.060465 76.72229,25.497955 C 76.62463,25.611245 76.31409,25.939365 75.79065,26.482335 C 75.26721,27.021395 74.52893,27.777255 73.57581,28.749915 M 82.38193,17.61381 C 81.52255,17.61382 80.83896,17.934133 80.33115,18.574765 C 79.82724,19.215385 79.57529,20.088435 79.57529,21.193895 C 79.57529,22.295465 79.82724,23.166555 80.33115,23.807175 C 80.83896,24.447805 81.52255,24.768115 82.38193,24.768115 C 83.2413,24.768115 83.92099,24.447805 84.42099,23.807175 C 84.92489,23.166555 85.17685,22.295465 85.17685,21.193895 C 85.17685,20.088435 84.92489,19.215385 84.42099,18.574765 C 83.92099,17.934133 83.2413,17.61382 82.38193,17.61381 M 82.38193,16.65288 C 83.60849,16.65289 84.58896,17.06499 85.32334,17.889213 C 86.0577,18.709525 86.42489,19.811095 86.4249,21.193895 C 86.42489,22.572805 86.0577,23.674365 85.32334,24.498585 C 84.58896,25.318895 83.60849,25.729055 82.38193,25.729055 C 81.15146,25.729055 80.16709,25.318895 79.42881,24.498585 C 78.69443,23.678275 78.32724,22.576715 78.32724,21.193895 C 78.32724,19.811095 78.69443,18.709525 79.42881,17.889213 C 80.16709,17.06499 81.15146,16.65289 82.38193,16.65288 M 88.27646,16.81108 L 89.46006,16.81108 L 89.46006,20.397025 L 93.76084,20.397025 L 93.76084,16.81108 L 94.94443,16.81108 L 94.94443,25.559135 L 93.76084,25.559135 L 93.76084,21.393115 L 89.46006,21.393115 L 89.46006,25.559135 L 88.27646,25.559135 L 88.27646,16.81108"
     style="font-size:12px;font-style:normal;font-weight:normal;fill:black;fill-opacity:1;stroke:none;stroke-width:1px;stroke-linecap:butt;stroke-linejoin:miter;stroke-opacity:1;font-family:Bitstream Vera Sans"
     id="path3743" />
  <path
     style="font-size:12px;fill:none;fill-rule:evenodd;stroke:black;stroke-width:0.96485538pt"
     d="M 59.550974,26.734298 L 59.550974,97.828037"
     id="path134" />
  <path
     style="font-size:12px;fill:none;fill-rule:evenodd;stroke:black;stroke-width:1pt"
     d="M 42.193356,71.362766 L 76.56836,71.362766"
     id="path151" />
  <path
     style="font-size:12px;fill:none;fill-rule:evenodd;stroke:black;stroke-width:1pt"
     d="M 42.193356,88.131566 L 76.56836,88.131566"
     id="path168" />
  <path
     style="font-size:12px;fill:none;fill-rule:evenodd;stroke:black;stroke-width:1pt"
     d="M 42.193356,54.593966 L 76.56836,54.593966"
     id="path452" />
  <text
     xml:space="preserve"
     style="font-size:12px;font-style:normal;font-weight:normal;fill:black;fill-opacity:1;stroke:none;stroke-width:1px;stroke-linecap:butt;stroke-linejoin:miter;stroke-opacity:1;font-family:Bitstream Vera Sans"
     x="23.487139"
     y="58.789124"
     id="text1910"><tspan
       sodipodi:role="line"
       id="tspan1912"
       x="23.487139"
       y="58.789124">HO</tspan></text>
  <text
     id="text3935"
     y="75.841599"
     x="76.537788"
     style="font-size:12px;font-style:normal;font-weight:normal;fill:black;fill-opacity:1;stroke:none;stroke-width:1px;stroke-linecap:butt;stroke-linejoin:miter;stroke-opacity:1;font-family:Bitstream Vera Sans"
     xml:space="preserve"><tspan
       y="75.841599"
       x="76.537788"
       id="tspan3937"
       sodipodi:role="line">OH</tspan></text>
  <text
     xml:space="preserve"
     style="font-size:12px;font-style:normal;font-weight:normal;fill:black;fill-opacity:1;stroke:none;stroke-width:1px;stroke-linecap:butt;stroke-linejoin:miter;stroke-opacity:1;font-family:Bitstream Vera Sans"
     x="76.554642"
     y="92.395103"
     id="text1918"><tspan
       sodipodi:role="line"
       id="tspan1920"
       x="76.554642"
       y="92.395103">OH</tspan></text>
  <text
     id="text1930"
     y="59.035427"
     x="76.436951"
     style="font-size:12px;font-style:normal;font-weight:normal;fill:black;fill-opacity:1;stroke:none;stroke-width:1px;stroke-linecap:butt;stroke-linejoin:miter;stroke-opacity:1;font-family:Bitstream Vera Sans"
     xml:space="preserve"><tspan
       y="59.035427"
       x="76.436951"
       id="tspan1932"
       sodipodi:role="line">H</tspan></text>
  <text
     xml:space="preserve"
     style="font-size:12px;font-style:normal;font-weight:normal;fill:black;fill-opacity:1;stroke:none;stroke-width:1px;stroke-linecap:butt;stroke-linejoin:miter;stroke-opacity:1;font-family:Bitstream Vera Sans"
     x="33.218929"
     y="75.880157"
     id="text1934"><tspan
       sodipodi:role="line"
       id="tspan1936"
       x="33.218929"
       y="75.880157">H</tspan></text>
  <text
     id="text1938"
     y="92.736107"
     x="33.745979"
     style="font-size:12px;font-style:normal;font-weight:normal;fill:black;fill-opacity:1;stroke:none;stroke-width:1px;stroke-linecap:butt;stroke-linejoin:miter;stroke-opacity:1;font-family:Bitstream Vera Sans"
     xml:space="preserve"><tspan
       y="92.736107"
       x="33.745979"
       id="tspan1940"
       sodipodi:role="line">H</tspan></text>
  <path
     id="path3956"
     style="font-size:12px;font-style:normal;font-weight:normal;fill:black;fill-opacity:1;stroke:none;stroke-width:1px;stroke-linecap:butt;stroke-linejoin:miter;stroke-opacity:1;font-family:Bitstream Vera Sans"
     d="M 62.905111,99.36707 L 62.905111,100.61512 C 62.506666,100.24403 62.080886,99.96669 61.627768,99.78309 C 61.178543,99.5995 60.700028,99.50771 60.192221,99.5077 C 59.192217,99.50771 58.426592,99.81435 57.895346,100.42762 C 57.364093,101.037 57.098469,101.91981 57.098471,103.07606 C 57.098469,104.2284 57.364093,105.11122 57.895346,105.72449 C 58.426592,106.33387 59.192217,106.63856 60.192221,106.63856 C 60.700028,106.63856 61.178543,106.54676 61.627768,106.36317 C 62.080886,106.17957 62.506666,105.90223 62.905111,105.53113 L 62.905111,106.76746 C 62.491041,107.04871 62.051589,107.25965 61.586752,107.40028 C 61.125808,107.5409 60.637528,107.61121 60.121908,107.61121 C 58.797686,107.61121 57.754718,107.20692 56.993002,106.39832 C 56.231282,105.58582 55.850423,104.4784 55.850424,103.07606 C 55.850423,101.66981 56.231282,100.56239 56.993002,99.75379 C 57.754718,98.9413 58.797686,98.53505 60.121908,98.53504 C 60.64534,98.53505 61.137527,98.60536 61.598471,98.74598 C 62.063307,98.88271 62.498854,99.08974 62.905111,99.36707 M 64.744955,98.69324 L 65.928549,98.69324 L 65.928549,102.27918 L 70.22933,102.27918 L 70.22933,98.69324 L 71.412924,98.69324 L 71.412924,107.44129 L 70.22933,107.44129 L 70.22933,103.27528 L 65.928549,103.27528 L 65.928549,107.44129 L 64.744955,107.44129 L 64.744955,98.69324 M 73.805858,110.6289 L 77.936718,110.6289 L 77.936718,111.62499 L 72.382032,111.62499 L 72.382032,110.6289 C 72.831248,110.16406 73.442578,109.54101 74.216018,108.75976 C 74.993358,107.9746 75.481638,107.46875 75.680858,107.24218 C 76.059758,106.8164 76.323438,106.45703 76.471878,106.16405 C 76.624218,105.86718 76.700388,105.57617 76.700388,105.29101 C 76.700388,104.82617 76.536328,104.44726 76.208208,104.15429 C 75.883978,103.86133 75.460158,103.71484 74.936718,103.71484 C 74.565628,103.71484 74.173048,103.7793 73.758988,103.90819 C 73.348828,104.03711 72.909378,104.23242 72.440628,104.49413 L 72.440628,103.29882 C 72.917188,103.10742 73.362498,102.96289 73.776568,102.86523 C 74.190628,102.76758 74.569528,102.71875 74.913278,102.71874 C 75.819528,102.71875 76.542188,102.94531 77.081248,103.39843 C 77.620308,103.85156 77.889838,104.45703 77.889848,105.21484 C 77.889838,105.57422 77.821478,105.91601 77.684768,106.24023 C 77.551948,106.56054 77.307808,106.93945 76.952348,107.37694 C 76.854688,107.49023 76.544138,107.81835 76.020708,108.36132 C 75.497268,108.90038 74.758978,109.65624 73.805858,110.6289 M 82.611978,99.4928 C 81.752608,99.49281 81.069008,99.81312 80.561198,100.45374 C 80.057298,101.09437 79.805338,101.96742 79.805338,103.07288 C 79.805338,104.17445 80.057298,105.04554 80.561198,105.68616 C 81.069008,106.32679 81.752608,106.6471 82.611978,106.6471 C 83.471348,106.6471 84.151038,106.32679 84.651048,105.68616 C 85.154948,105.04554 85.406898,104.17445 85.406908,103.07288 C 85.406898,101.96742 85.154948,101.09437 84.651048,100.45374 C 84.151038,99.81312 83.471348,99.49281 82.611978,99.4928 M 82.611978,98.53187 C 83.838538,98.53188 84.819008,98.94398 85.553388,99.7682 C 86.287758,100.58851 86.654938,101.69008 86.654948,103.07288 C 86.654938,104.45179 86.287758,105.55335 85.553388,106.37757 C 84.819008,107.19788 83.838538,107.60804 82.611978,107.60804 C 81.381508,107.60804 80.397138,107.19788 79.658858,106.37757 C 78.924478,105.55726 78.557298,104.4557 78.557298,103.07288 C 78.557298,101.69008 78.924478,100.58851 79.658858,99.7682 C 80.397138,98.94398 81.381508,98.53188 82.611978,98.53187 M 88.506518,98.69007 L 89.690108,98.69007 L 89.690108,102.27601 L 93.990888,102.27601 L 93.990888,98.69007 L 95.174478,98.69007 L 95.174478,107.43812 L 93.990888,107.43812 L 93.990888,103.2721 L 89.690108,103.2721 L 89.690108,107.43812 L 88.506518,107.43812 L 88.506518,98.69007" />
</svg>
