<?xml version="1.0" encoding="UTF-8" standalone="no"?>
<!-- Created with Sodipodi ("http://www.sodipodi.com/") -->
<svg
   xmlns:dc="http://purl.org/dc/elements/1.1/"
   xmlns:cc="http://web.resource.org/cc/"
   xmlns:rdf="http://www.w3.org/1999/02/22-rdf-syntax-ns#"
   xmlns:svg="http://www.w3.org/2000/svg"
   xmlns="http://www.w3.org/2000/svg"
   xmlns:sodipodi="http://sodipodi.sourceforge.net/DTD/sodipodi-0.dtd"
   xmlns:inkscape="http://www.inkscape.org/namespaces/inkscape"
   version="1"
   x="0"
   y="0"
   width="100pt"
   height="100pt"
   id="svg101"
   sodipodi:version="0.32"
   sodipodi:docname="talose.svg"
   sodipodi:docbase="/home/rusconi/devel/massxpert/data/pol-chem-defs/saccharide"
   inkscape:version="0.44.1">
  <metadata
     id="metadata38">
    <rdf:RDF>
      <cc:Work
         rdf:about="">
        <dc:format>image/svg+xml</dc:format>
        <dc:type
           rdf:resource="http://purl.org/dc/dcmitype/StillImage" />
      </cc:Work>
    </rdf:RDF>
  </metadata>
  <sodipodi:namedview
     id="base"
     inkscape:zoom="5.2689208"
     inkscape:cx="55.811445"
     inkscape:cy="58.122541"
     inkscape:window-width="1187"
     inkscape:window-height="933"
     inkscape:window-x="0"
     inkscape:window-y="30"
     inkscape:current-layer="svg101">
    <sodipodi:guide
       orientation="horizontal"
       position="71.562508"
       id="guide147" />
    <sodipodi:guide
       orientation="vertical"
       position="29.375"
       id="guide163" />
    <sodipodi:guide
       orientation="vertical"
       position="59.8438"
       id="guide164" />
  </sodipodi:namedview>
  <defs
     id="defs103" />
  <path
     style="font-size:12px;fill:#84c48c;fill-rule:evenodd;stroke-width:0pt"
     d="M 6.2796001,6.742805 L 118.71786,6.742805 L 118.71786,118.76839 L 6.2796001,118.76839 L 6.2796001,6.742805 z "
     id="inner-frame" />
  <path
     style="font-size:12px;fill:none;fill-rule:evenodd;stroke:black;stroke-width:0.96485538pt"
     d="M 60.224768,26.171832 L 60.224768,97.265571"
     id="path134" />
  <path
     style="font-size:12px;fill:none;fill-rule:evenodd;stroke:black;stroke-width:1pt"
     d="M 42.86715,70.8003 L 77.24215,70.8003"
     id="path151" />
  <path
     style="font-size:12px;fill:none;fill-rule:evenodd;stroke:black;stroke-width:1pt"
     d="M 42.86715,87.5691 L 77.24215,87.5691"
     id="path168" />
  <path
     style="font-size:12px;fill:none;fill-rule:evenodd;stroke:black;stroke-width:1pt"
     d="M 42.86715,37.45841 L 77.24215,37.45841"
     id="path754" />
  <path
     style="font-size:12px;font-style:normal;font-weight:normal;fill:black;fill-opacity:1;stroke:none;stroke-width:1px;stroke-linecap:butt;stroke-linejoin:miter;stroke-opacity:1;font-family:Bitstream Vera Sans"
     d="M 64.158905,17.066475 L 64.158905,18.314522 C 63.76046,17.943435 63.334679,17.666092 62.881561,17.482491 C 62.432337,17.298905 61.953821,17.207108 61.446014,17.2071 C 60.44601,17.207108 59.680386,17.513748 59.149139,18.127022 C 58.617887,18.736403 58.352262,19.619215 58.352264,20.775459 C 58.352262,21.927806 58.617887,22.810618 59.149139,23.423897 C 59.680386,24.033273 60.44601,24.33796 61.446014,24.337959 C 61.953821,24.33796 62.432337,24.246163 62.881561,24.062569 C 63.334679,23.878976 63.76046,23.601633 64.158905,23.230537 L 64.158905,24.466866 C 63.744835,24.748116 63.305383,24.959053 62.840546,25.099678 C 62.379602,25.240303 61.891321,25.310615 61.375702,25.310616 C 60.05148,25.310615 59.008512,24.906319 58.246796,24.097725 C 57.485076,23.285227 57.104217,22.177806 57.104218,20.775459 C 57.104217,19.369215 57.485076,18.261794 58.246796,17.453194 C 59.008512,16.640702 60.05148,16.234453 61.375702,16.234444 C 61.899134,16.234453 62.391321,16.304765 62.852264,16.445381 C 63.317101,16.582108 63.752648,16.78914 64.158905,17.066475 M 65.998749,16.392647 L 67.182343,16.392647 L 67.182343,19.978584 L 71.483124,19.978584 L 71.483124,16.392647 L 72.666718,16.392647 L 72.666718,25.140694 L 71.483124,25.140694 L 71.483124,20.974678 L 67.182343,20.974678 L 67.182343,25.140694 L 65.998749,25.140694 L 65.998749,16.392647 M 78.572968,17.195381 C 77.713589,17.195389 77.029996,17.515701 76.522186,18.156319 C 76.018278,18.79695 75.766325,19.669996 75.766327,20.775459 C 75.766325,21.877025 76.018278,22.748118 76.522186,23.388741 C 77.029996,24.029367 77.713589,24.349679 78.572968,24.349678 C 79.432337,24.349679 80.112024,24.029367 80.61203,23.388741 C 81.115929,22.748118 81.367882,21.877025 81.367889,20.775459 C 81.367882,19.669996 81.115929,18.79695 80.61203,18.156319 C 80.112024,17.515701 79.432337,17.195389 78.572968,17.195381 M 78.572968,16.234444 C 79.799524,16.234453 80.779992,16.646562 81.514374,17.470772 C 82.24874,18.291091 82.615928,19.392653 82.615936,20.775459 C 82.615928,22.154369 82.24874,23.25593 81.514374,24.080147 C 80.779992,24.90046 79.799524,25.310615 78.572968,25.310616 C 77.342495,25.310615 76.358121,24.90046 75.619843,24.080147 C 74.885466,23.259836 74.518279,22.158275 74.51828,20.775459 C 74.518279,19.392653 74.885466,18.291091 75.619843,17.470772 C 76.358121,16.646562 77.342495,16.234453 78.572968,16.234444"
     id="text1902" />
  <path
     style="font-size:12px;font-style:normal;font-weight:normal;fill:black;fill-opacity:1;stroke:none;stroke-width:1px;stroke-linecap:butt;stroke-linejoin:miter;stroke-opacity:1;font-family:Bitstream Vera Sans"
     d="M 25.419334,32.812973 L 26.602928,32.812973 L 26.602928,36.398911 L 30.903709,36.398911 L 30.903709,32.812973 L 32.087303,32.812973 L 32.087303,41.56102 L 30.903709,41.56102 L 30.903709,37.395004 L 26.602928,37.395004 L 26.602928,41.56102 L 25.419334,41.56102 L 25.419334,32.812973 M 37.993553,33.615707 C 37.134174,33.615715 36.450581,33.936028 35.942772,34.576645 C 35.438863,35.217276 35.186911,36.090322 35.186913,37.195786 C 35.186911,38.297351 35.438863,39.168444 35.942772,39.809067 C 36.450581,40.449693 37.134174,40.770005 37.993553,40.770004 C 38.852923,40.770005 39.532609,40.449693 40.032616,39.809067 C 40.536515,39.168444 40.788468,38.297351 40.788475,37.195786 C 40.788468,36.090322 40.536515,35.217276 40.032616,34.576645 C 39.532609,33.936028 38.852923,33.615715 37.993553,33.615707 M 37.993553,32.65477 C 39.22011,32.654779 40.200577,33.066888 40.934959,33.891098 C 41.669326,34.711417 42.036513,35.812979 42.036522,37.195786 C 42.036513,38.574695 41.669326,39.676256 40.934959,40.500473 C 40.200577,41.320786 39.22011,41.730942 37.993553,41.730942 C 36.763081,41.730942 35.778707,41.320786 35.040428,40.500473 C 34.306052,39.680162 33.938865,38.578601 33.938866,37.195786 C 33.938865,35.812979 34.306052,34.711417 35.040428,33.891098 C 35.778707,33.066888 36.763081,32.654779 37.993553,32.65477"
     id="text1906" />
  <path
     style="font-size:12px;font-style:normal;font-weight:normal;fill:black;fill-opacity:1;stroke:none;stroke-width:1px;stroke-linecap:butt;stroke-linejoin:miter;stroke-opacity:1;font-family:Bitstream Vera Sans"
     d="M 78.180267,33.122887 L 79.363861,33.122887 L 79.363861,36.708824 L 83.664642,36.708824 L 83.664642,33.122887 L 84.848236,33.122887 L 84.848236,41.870934 L 83.664642,41.870934 L 83.664642,37.704918 L 79.363861,37.704918 L 79.363861,41.870934 L 78.180267,41.870934 L 78.180267,33.122887"
     id="text1930" />
  <path
     style="font-size:12px;font-style:normal;font-weight:normal;fill:black;fill-opacity:1;stroke:none;stroke-width:1px;stroke-linecap:butt;stroke-linejoin:miter;stroke-opacity:1;font-family:Bitstream Vera Sans"
     d="M 63.718367,98.857873 L 63.718367,100.10592 C 63.319922,99.734833 62.894142,99.457493 62.441024,99.273893 C 61.991799,99.090303 61.513284,98.998513 61.005477,98.998503 C 60.005473,98.998513 59.239848,99.305153 58.708602,99.918423 C 58.177349,100.5278 57.911725,101.41061 57.911727,102.56686 C 57.911725,103.7192 58.177349,104.60202 58.708602,105.21529 C 59.239848,105.82467 60.005473,106.12936 61.005477,106.12936 C 61.513284,106.12936 61.991799,106.03756 62.441024,105.85397 C 62.894142,105.67037 63.319922,105.39303 63.718367,105.02193 L 63.718367,106.25826 C 63.304297,106.53951 62.864845,106.75045 62.400008,106.89108 C 61.939064,107.0317 61.450784,107.10201 60.935164,107.10201 C 59.610942,107.10201 58.567974,106.69772 57.806258,105.88912 C 57.044538,105.07662 56.663679,103.9692 56.66368,102.56686 C 56.663679,101.16061 57.044538,100.05319 57.806258,99.244593 C 58.567974,98.432103 59.610942,98.025853 60.935164,98.025843 C 61.458596,98.025853 61.950783,98.096163 62.411727,98.236783 C 62.876563,98.373513 63.31211,98.580543 63.718367,98.857873 M 65.558211,98.184043 L 66.741805,98.184043 L 66.741805,101.76998 L 71.042586,101.76998 L 71.042586,98.184043 L 72.22618,98.184043 L 72.22618,106.93209 L 71.042586,106.93209 L 71.042586,102.76608 L 66.741805,102.76608 L 66.741805,106.93209 L 65.558211,106.93209 L 65.558211,98.184043 M 74.619116,110.1197 L 78.749976,110.1197 L 78.749976,111.11579 L 73.195288,111.11579 L 73.195288,110.1197 C 73.644506,109.65486 74.255833,109.03181 75.029273,108.25056 C 75.806613,107.4654 76.294894,106.95955 76.494116,106.73298 C 76.873018,106.3072 77.13669,105.94783 77.285132,105.65485 C 77.437471,105.35798 77.513643,105.06697 77.513648,104.78181 C 77.513643,104.31697 77.34958,103.93806 77.02146,103.64509 C 76.697237,103.35213 76.273409,103.20564 75.749976,103.20564 C 75.378879,103.20564 74.986301,103.2701 74.572241,103.39899 C 74.162083,103.52791 73.722631,103.72322 73.253882,103.98493 L 73.253882,102.78962 C 73.730443,102.59822 74.175755,102.45369 74.58982,102.35603 C 75.003879,102.25838 75.382785,102.20955 75.726538,102.20954 C 76.632784,102.20955 77.35544,102.43611 77.894507,102.88923 C 78.433563,103.34236 78.703094,103.94783 78.703101,104.70564 C 78.703094,105.06502 78.634735,105.40681 78.498023,105.73103 C 78.365204,106.05134 78.121064,106.43025 77.765601,106.86774 C 77.667939,106.98103 77.357393,107.30915 76.83396,107.85212 C 76.310519,108.39118 75.572238,109.14704 74.619116,110.1197 M 83.425238,98.983603 C 82.565859,98.983613 81.882266,99.303923 81.374457,99.944543 C 80.870549,100.58517 80.618596,101.45822 80.618598,102.56368 C 80.618596,103.66525 80.870549,104.53634 81.374457,105.17696 C 81.882266,105.81759 82.565859,106.1379 83.425238,106.1379 C 84.284608,106.1379 84.964295,105.81759 85.464301,105.17696 C 85.9682,104.53634 86.220153,103.66525 86.22016,102.56368 C 86.220153,101.45822 85.9682,100.58517 85.464301,99.944543 C 84.964295,99.303923 84.284608,98.983613 83.425238,98.983603 M 83.425238,98.022673 C 84.651795,98.022683 85.632263,98.434783 86.366645,99.259003 C 87.101011,100.07931 87.468198,101.18088 87.468207,102.56368 C 87.468198,103.94259 87.101011,105.04415 86.366645,105.86837 C 85.632263,106.68868 84.651795,107.09884 83.425238,107.09884 C 82.194766,107.09884 81.210392,106.68868 80.472113,105.86837 C 79.737737,105.04806 79.37055,103.9465 79.370551,102.56368 C 79.37055,101.18088 79.737737,100.07931 80.472113,99.259003 C 81.210392,98.434783 82.194766,98.022683 83.425238,98.022673 M 89.31977,98.180873 L 90.503363,98.180873 L 90.503363,101.76681 L 94.804145,101.76681 L 94.804145,98.180873 L 95.987739,98.180873 L 95.987739,106.92892 L 94.804145,106.92892 L 94.804145,102.7629 L 90.503363,102.7629 L 90.503363,106.92892 L 89.31977,106.92892 L 89.31977,98.180873"
     id="text1922" />
  <path
     style="font-size:12px;font-style:normal;font-weight:normal;fill:black;fill-opacity:1;stroke:none;stroke-width:1px;stroke-linecap:butt;stroke-linejoin:miter;stroke-opacity:1;font-family:Bitstream Vera Sans"
     d="M 81.83136,84.100426 C 80.971981,84.100434 80.288388,84.420746 79.780579,85.061363 C 79.27667,85.701995 79.024717,86.575041 79.024719,87.680504 C 79.024717,88.78207 79.27667,89.653162 79.780579,90.293785 C 80.288388,90.934411 80.971981,91.254723 81.83136,91.254723 C 82.690729,91.254723 83.370416,90.934411 83.870422,90.293785 C 84.374321,89.653162 84.626274,88.78207 84.626282,87.680504 C 84.626274,86.575041 84.374321,85.701995 83.870422,85.061363 C 83.370416,84.420746 82.690729,84.100434 81.83136,84.100426 M 81.83136,83.139488 C 83.057916,83.139497 84.038384,83.551606 84.772766,84.375816 C 85.507133,85.196136 85.87432,86.297697 85.874329,87.680504 C 85.87432,89.059413 85.507133,90.160974 84.772766,90.985191 C 84.038384,91.805504 83.057916,92.21566 81.83136,92.21566 C 80.600888,92.21566 79.616514,91.805504 78.878235,90.985191 C 78.143859,90.164881 77.776672,89.063319 77.776672,87.680504 C 77.776672,86.297697 78.143859,85.196136 78.878235,84.375816 C 79.616514,83.551606 80.600888,83.139497 81.83136,83.139488 M 87.725891,83.297691 L 88.909485,83.297691 L 88.909485,86.883629 L 93.210266,86.883629 L 93.210266,83.297691 L 94.39386,83.297691 L 94.39386,92.045738 L 93.210266,92.045738 L 93.210266,87.879723 L 88.909485,87.879723 L 88.909485,92.045738 L 87.725891,92.045738 L 87.725891,83.297691"
     id="text2286" />
  <path
     style="font-size:12px;font-style:normal;font-weight:normal;fill:black;fill-opacity:1;stroke:none;stroke-width:1px;stroke-linecap:butt;stroke-linejoin:miter;stroke-opacity:1;font-family:Bitstream Vera Sans"
     d="M 25.40497,66.406189 L 26.588564,66.406189 L 26.588564,69.992126 L 30.889345,69.992126 L 30.889345,66.406189 L 32.072939,66.406189 L 32.072939,75.154236 L 30.889345,75.154236 L 30.889345,70.98822 L 26.588564,70.98822 L 26.588564,75.154236 L 25.40497,75.154236 L 25.40497,66.406189 M 37.979189,67.208923 C 37.11981,67.208931 36.436217,67.529243 35.928408,68.169861 C 35.424499,68.810492 35.172546,69.683538 35.172548,70.789001 C 35.172546,71.890567 35.424499,72.76166 35.928408,73.402283 C 36.436217,74.042909 37.11981,74.363221 37.979189,74.36322 C 38.838558,74.363221 39.518245,74.042909 40.018251,73.402283 C 40.52215,72.76166 40.774103,71.890567 40.774111,70.789001 C 40.774103,69.683538 40.52215,68.810492 40.018251,68.169861 C 39.518245,67.529243 38.838558,67.208931 37.979189,67.208923 M 37.979189,66.247986 C 39.205745,66.247995 40.186213,66.660104 40.920595,67.484314 C 41.654962,68.304633 42.022149,69.406195 42.022158,70.789001 C 42.022149,72.167911 41.654962,73.269472 40.920595,74.093689 C 40.186213,74.914002 39.205745,75.324158 37.979189,75.324158 C 36.748717,75.324158 35.764343,74.914002 35.026064,74.093689 C 34.291688,73.273378 33.924501,72.171817 33.924501,70.789001 C 33.924501,69.406195 34.291688,68.304633 35.026064,67.484314 C 35.764343,66.660104 36.748717,66.247995 37.979189,66.247986"
     id="text2290" />
  <path
     style="font-size:12px;font-style:normal;font-weight:normal;fill:black;fill-opacity:1;stroke:none;stroke-width:1px;stroke-linecap:butt;stroke-linejoin:miter;stroke-opacity:1;font-family:Bitstream Vera Sans"
     d="M 78.124352,66.071838 L 79.307945,66.071838 L 79.307945,69.657776 L 83.608727,69.657776 L 83.608727,66.071838 L 84.79232,66.071838 L 84.79232,74.819885 L 83.608727,74.819885 L 83.608727,70.65387 L 79.307945,70.65387 L 79.307945,74.819885 L 78.124352,74.819885 L 78.124352,66.071838"
     id="text2302" />
  <path
     style="font-size:12px;font-style:normal;font-weight:normal;fill:black;fill-opacity:1;stroke:none;stroke-width:1px;stroke-linecap:butt;stroke-linejoin:miter;stroke-opacity:1;font-family:Bitstream Vera Sans"
     d="M 35.421108,82.830994 L 36.604702,82.830994 L 36.604702,86.416931 L 40.905483,86.416931 L 40.905483,82.830994 L 42.089077,82.830994 L 42.089077,91.579041 L 40.905483,91.579041 L 40.905483,87.413025 L 36.604702,87.413025 L 36.604702,91.579041 L 35.421108,91.579041 L 35.421108,82.830994"
     id="text2306" />
  <path
     style="font-size:12px;fill:none;fill-rule:evenodd;stroke:black;stroke-width:1pt"
     d="M 42.86715,54.027786 L 77.24215,54.027786"
     id="path4638" />
  <path
     style="font-size:12px;font-style:normal;font-weight:normal;fill:black;fill-opacity:1;stroke:none;stroke-width:1px;stroke-linecap:butt;stroke-linejoin:miter;stroke-opacity:1;font-family:Bitstream Vera Sans"
     d="M 25.419334,49.382351 L 26.602928,49.382351 L 26.602928,52.968288 L 30.903709,52.968288 L 30.903709,49.382351 L 32.087303,49.382351 L 32.087303,58.130398 L 30.903709,58.130398 L 30.903709,53.964382 L 26.602928,53.964382 L 26.602928,58.130398 L 25.419334,58.130398 L 25.419334,49.382351 M 37.993553,50.185085 C 37.134174,50.185093 36.450581,50.505405 35.942772,51.146023 C 35.438863,51.786654 35.186911,52.6597 35.186913,53.765163 C 35.186911,54.866729 35.438863,55.737822 35.942772,56.378445 C 36.450581,57.019071 37.134174,57.339383 37.993553,57.339382 C 38.852923,57.339383 39.532609,57.019071 40.032616,56.378445 C 40.536515,55.737822 40.788468,54.866729 40.788475,53.765163 C 40.788468,52.6597 40.536515,51.786654 40.032616,51.146023 C 39.532609,50.505405 38.852923,50.185093 37.993553,50.185085 M 37.993553,49.224148 C 39.22011,49.224157 40.200577,49.636266 40.934959,50.460476 C 41.669326,51.280795 42.036513,52.382357 42.036522,53.765163 C 42.036513,55.144073 41.669326,56.245634 40.934959,57.069851 C 40.200577,57.890164 39.22011,58.30032 37.993553,58.30032 C 36.763081,58.30032 35.778707,57.890164 35.040428,57.069851 C 34.306052,56.24954 33.938865,55.147979 33.938866,53.765163 C 33.938865,52.382357 34.306052,51.280795 35.040428,50.460476 C 35.778707,49.636266 36.763081,49.224157 37.993553,49.224148"
     id="text4640" />
  <path
     style="font-size:12px;font-style:normal;font-weight:normal;fill:black;fill-opacity:1;stroke:none;stroke-width:1px;stroke-linecap:butt;stroke-linejoin:miter;stroke-opacity:1;font-family:Bitstream Vera Sans"
     d="M 78.180267,49.692265 L 79.363861,49.692265 L 79.363861,53.278202 L 83.664642,53.278202 L 83.664642,49.692265 L 84.848236,49.692265 L 84.848236,58.440311 L 83.664642,58.440311 L 83.664642,54.274296 L 79.363861,54.274296 L 79.363861,58.440311 L 78.180267,58.440311 L 78.180267,49.692265"
     id="text4644" />
</svg>
