<?xml version="1.0" encoding="UTF-8" standalone="no"?>
<!-- Created with Sodipodi ("http://www.sodipodi.com/") -->
<svg
   xmlns:dc="http://purl.org/dc/elements/1.1/"
   xmlns:cc="http://web.resource.org/cc/"
   xmlns:rdf="http://www.w3.org/1999/02/22-rdf-syntax-ns#"
   xmlns:svg="http://www.w3.org/2000/svg"
   xmlns="http://www.w3.org/2000/svg"
   xmlns:sodipodi="http://sodipodi.sourceforge.net/DTD/sodipodi-0.dtd"
   xmlns:inkscape="http://www.inkscape.org/namespaces/inkscape"
   version="1"
   x="0"
   y="0"
   width="100pt"
   height="100pt"
   id="svg101"
   sodipodi:version="0.32"
   sodipodi:docname="talose-text.svg"
   sodipodi:docbase="/home/rusconi/devel/massxpert/data/pol-chem-defs/saccharide"
   inkscape:version="0.44.1">
  <metadata
     id="metadata38">
    <rdf:RDF>
      <cc:Work
         rdf:about="">
        <dc:format>image/svg+xml</dc:format>
        <dc:type
           rdf:resource="http://purl.org/dc/dcmitype/StillImage" />
      </cc:Work>
    </rdf:RDF>
  </metadata>
  <sodipodi:namedview
     id="base"
     inkscape:zoom="5.2689208"
     inkscape:cx="55.811445"
     inkscape:cy="58.008759"
     inkscape:window-width="1187"
     inkscape:window-height="933"
     inkscape:window-x="0"
     inkscape:window-y="30"
     inkscape:current-layer="svg101">
    <sodipodi:guide
       orientation="horizontal"
       position="71.562508"
       id="guide147" />
    <sodipodi:guide
       orientation="vertical"
       position="29.375"
       id="guide163" />
    <sodipodi:guide
       orientation="vertical"
       position="59.8438"
       id="guide164" />
  </sodipodi:namedview>
  <defs
     id="defs103" />
  <rect
     width="112.438263"
     height="112.025581"
     x="6.279600"
     y="6.742805"
     style="font-size:12;fill:#84c48c;fill-rule:evenodd;stroke-width:0pt;"
     id="inner-frame" />
  <path
     style="font-size:12px;fill:none;fill-rule:evenodd;stroke:black;stroke-width:0.96485538pt"
     d="M 60.224768,26.171832 L 60.224768,97.265571"
     id="path134" />
  <path
     style="font-size:12px;fill:none;fill-rule:evenodd;stroke:black;stroke-width:1pt"
     d="M 42.86715,70.8003 L 77.24215,70.8003"
     id="path151" />
  <path
     style="font-size:12px;fill:none;fill-rule:evenodd;stroke:black;stroke-width:1pt"
     d="M 42.86715,87.5691 L 77.24215,87.5691"
     id="path168" />
  <path
     style="font-size:12px;fill:none;fill-rule:evenodd;stroke:black;stroke-width:1pt"
     d="M 42.86715,37.45841 L 77.24215,37.45841"
     id="path754" />
  <text
     xml:space="preserve"
     style="font-size:12px;font-style:normal;font-weight:normal;fill:black;fill-opacity:1;stroke:none;stroke-width:1px;stroke-linecap:butt;stroke-linejoin:miter;stroke-opacity:1;font-family:Bitstream Vera Sans"
     x="56.430389"
     y="25.140694"
     id="text1902"><tspan
       sodipodi:role="line"
       id="tspan1904"
       x="56.430389"
       y="25.140694">CHO</tspan></text>
  <text
     id="text1906"
     y="41.56102"
     x="24.2416"
     style="font-size:12px;font-style:normal;font-weight:normal;fill:black;fill-opacity:1;stroke:none;stroke-width:1px;stroke-linecap:butt;stroke-linejoin:miter;stroke-opacity:1;font-family:Bitstream Vera Sans"
     xml:space="preserve"><tspan
       y="41.56102"
       x="24.2416"
       id="tspan1908"
       sodipodi:role="line">HO</tspan></text>
  <text
     id="text1930"
     y="41.870934"
     x="77.002533"
     style="font-size:12px;font-style:normal;font-weight:normal;fill:black;fill-opacity:1;stroke:none;stroke-width:1px;stroke-linecap:butt;stroke-linejoin:miter;stroke-opacity:1;font-family:Bitstream Vera Sans"
     xml:space="preserve"><tspan
       y="41.870934"
       x="77.002533"
       id="tspan1932"
       sodipodi:role="line">H</tspan></text>
  <path
     id="text1922"
     style="font-size:12px;font-style:normal;font-weight:normal;fill:black;fill-opacity:1;stroke:none;stroke-width:1px;stroke-linecap:butt;stroke-linejoin:miter;stroke-opacity:1;font-family:Bitstream Vera Sans"
     d="M 63.718367,98.857873 L 63.718367,100.10592 C 63.319922,99.734833 62.894142,99.457493 62.441024,99.273893 C 61.991799,99.090303 61.513284,98.998513 61.005477,98.998503 C 60.005473,98.998513 59.239848,99.305153 58.708602,99.918423 C 58.177349,100.5278 57.911725,101.41061 57.911727,102.56686 C 57.911725,103.7192 58.177349,104.60202 58.708602,105.21529 C 59.239848,105.82467 60.005473,106.12936 61.005477,106.12936 C 61.513284,106.12936 61.991799,106.03756 62.441024,105.85397 C 62.894142,105.67037 63.319922,105.39303 63.718367,105.02193 L 63.718367,106.25826 C 63.304297,106.53951 62.864845,106.75045 62.400008,106.89108 C 61.939064,107.0317 61.450784,107.10201 60.935164,107.10201 C 59.610942,107.10201 58.567974,106.69772 57.806258,105.88912 C 57.044538,105.07662 56.663679,103.9692 56.66368,102.56686 C 56.663679,101.16061 57.044538,100.05319 57.806258,99.244593 C 58.567974,98.432103 59.610942,98.025853 60.935164,98.025843 C 61.458596,98.025853 61.950783,98.096163 62.411727,98.236783 C 62.876563,98.373513 63.31211,98.580543 63.718367,98.857873 M 65.558211,98.184043 L 66.741805,98.184043 L 66.741805,101.76998 L 71.042586,101.76998 L 71.042586,98.184043 L 72.22618,98.184043 L 72.22618,106.93209 L 71.042586,106.93209 L 71.042586,102.76608 L 66.741805,102.76608 L 66.741805,106.93209 L 65.558211,106.93209 L 65.558211,98.184043 M 74.619116,110.1197 L 78.749976,110.1197 L 78.749976,111.11579 L 73.195288,111.11579 L 73.195288,110.1197 C 73.644506,109.65486 74.255833,109.03181 75.029273,108.25056 C 75.806613,107.4654 76.294894,106.95955 76.494116,106.73298 C 76.873018,106.3072 77.13669,105.94783 77.285132,105.65485 C 77.437471,105.35798 77.513643,105.06697 77.513648,104.78181 C 77.513643,104.31697 77.34958,103.93806 77.02146,103.64509 C 76.697237,103.35213 76.273409,103.20564 75.749976,103.20564 C 75.378879,103.20564 74.986301,103.2701 74.572241,103.39899 C 74.162083,103.52791 73.722631,103.72322 73.253882,103.98493 L 73.253882,102.78962 C 73.730443,102.59822 74.175755,102.45369 74.58982,102.35603 C 75.003879,102.25838 75.382785,102.20955 75.726538,102.20954 C 76.632784,102.20955 77.35544,102.43611 77.894507,102.88923 C 78.433563,103.34236 78.703094,103.94783 78.703101,104.70564 C 78.703094,105.06502 78.634735,105.40681 78.498023,105.73103 C 78.365204,106.05134 78.121064,106.43025 77.765601,106.86774 C 77.667939,106.98103 77.357393,107.30915 76.83396,107.85212 C 76.310519,108.39118 75.572238,109.14704 74.619116,110.1197 M 83.425238,98.983603 C 82.565859,98.983613 81.882266,99.303923 81.374457,99.944543 C 80.870549,100.58517 80.618596,101.45822 80.618598,102.56368 C 80.618596,103.66525 80.870549,104.53634 81.374457,105.17696 C 81.882266,105.81759 82.565859,106.1379 83.425238,106.1379 C 84.284608,106.1379 84.964295,105.81759 85.464301,105.17696 C 85.9682,104.53634 86.220153,103.66525 86.22016,102.56368 C 86.220153,101.45822 85.9682,100.58517 85.464301,99.944543 C 84.964295,99.303923 84.284608,98.983613 83.425238,98.983603 M 83.425238,98.022673 C 84.651795,98.022683 85.632263,98.434783 86.366645,99.259003 C 87.101011,100.07931 87.468198,101.18088 87.468207,102.56368 C 87.468198,103.94259 87.101011,105.04415 86.366645,105.86837 C 85.632263,106.68868 84.651795,107.09884 83.425238,107.09884 C 82.194766,107.09884 81.210392,106.68868 80.472113,105.86837 C 79.737737,105.04806 79.37055,103.9465 79.370551,102.56368 C 79.37055,101.18088 79.737737,100.07931 80.472113,99.259003 C 81.210392,98.434783 82.194766,98.022683 83.425238,98.022673 M 89.31977,98.180873 L 90.503363,98.180873 L 90.503363,101.76681 L 94.804145,101.76681 L 94.804145,98.180873 L 95.987739,98.180873 L 95.987739,106.92892 L 94.804145,106.92892 L 94.804145,102.7629 L 90.503363,102.7629 L 90.503363,106.92892 L 89.31977,106.92892 L 89.31977,98.180873" />
  <text
     xml:space="preserve"
     style="font-size:12px;font-style:normal;font-weight:normal;fill:black;fill-opacity:1;stroke:none;stroke-width:1px;stroke-linecap:butt;stroke-linejoin:miter;stroke-opacity:1;font-family:Bitstream Vera Sans"
     x="77.102844"
     y="92.045738"
     id="text2286"><tspan
       sodipodi:role="line"
       id="tspan2288"
       x="77.102844"
       y="92.045738">OH</tspan></text>
  <text
     id="text2290"
     y="75.154236"
     x="24.227236"
     style="font-size:12px;font-style:normal;font-weight:normal;fill:black;fill-opacity:1;stroke:none;stroke-width:1px;stroke-linecap:butt;stroke-linejoin:miter;stroke-opacity:1;font-family:Bitstream Vera Sans"
     xml:space="preserve"><tspan
       y="75.154236"
       x="24.227236"
       id="tspan2292"
       sodipodi:role="line">HO</tspan></text>
  <text
     id="text2302"
     y="74.819885"
     x="76.946617"
     style="font-size:12px;font-style:normal;font-weight:normal;fill:black;fill-opacity:1;stroke:none;stroke-width:1px;stroke-linecap:butt;stroke-linejoin:miter;stroke-opacity:1;font-family:Bitstream Vera Sans"
     xml:space="preserve"><tspan
       y="74.819885"
       x="76.946617"
       id="tspan2304"
       sodipodi:role="line">H</tspan></text>
  <text
     xml:space="preserve"
     style="font-size:12px;font-style:normal;font-weight:normal;fill:black;fill-opacity:1;stroke:none;stroke-width:1px;stroke-linecap:butt;stroke-linejoin:miter;stroke-opacity:1;font-family:Bitstream Vera Sans"
     x="34.243374"
     y="91.579041"
     id="text2306"><tspan
       sodipodi:role="line"
       id="tspan2308"
       x="34.243374"
       y="91.579041">H</tspan></text>
  <path
     id="path4638"
     d="M 42.86715,54.027786 L 77.24215,54.027786"
     style="font-size:12px;fill:none;fill-rule:evenodd;stroke:black;stroke-width:1pt" />
  <text
     xml:space="preserve"
     style="font-size:12px;font-style:normal;font-weight:normal;fill:black;fill-opacity:1;stroke:none;stroke-width:1px;stroke-linecap:butt;stroke-linejoin:miter;stroke-opacity:1;font-family:Bitstream Vera Sans"
     x="24.2416"
     y="58.130398"
     id="text4640"><tspan
       sodipodi:role="line"
       id="tspan4642"
       x="24.2416"
       y="58.130398">HO</tspan></text>
  <text
     xml:space="preserve"
     style="font-size:12px;font-style:normal;font-weight:normal;fill:black;fill-opacity:1;stroke:none;stroke-width:1px;stroke-linecap:butt;stroke-linejoin:miter;stroke-opacity:1;font-family:Bitstream Vera Sans"
     x="77.002533"
     y="58.440311"
     id="text4644"><tspan
       sodipodi:role="line"
       id="tspan4646"
       x="77.002533"
       y="58.440311">H</tspan></text>
</svg>
