<?xml version="1.0" encoding="UTF-8" standalone="no"?>
<!DOCTYPE svg PUBLIC "-//W3C//DTD SVG 20010904//EN"
"http://www.w3.org/TR/2001/REC-SVG-20010904/DTD/svg10.dtd"
[
 <!ATTLIST svg
  xmlns:xlink CDATA #FIXED "http://www.w3.org/1999/xlink">
]>
<!-- Created with Sodipodi ("http://www.sodipodi.com/") -->
<svg
   xmlns="http://www.w3.org/2000/svg"
   xmlns:xlink="http://www.w3.org/1999/xlink"
   version="1"
   x="0"
   y="0"
   width="125"
   height="125"
   id="svg101">
  <defs
     id="defs103" />
  <g
     style="font-size:12;"
     id="g512">
    <path
       d="M 6.2796 6.74281 L 6.2796 118.768 L 118.718 118.768 L 118.718 6.74281 L 6.2796 6.74281 z "
       style="fill:#406cff;fill-rule:evenodd;stroke-width:0pt;"
       id="path511" />
    <path
       d="M 35.0912 16.3739 L 35.0912 30.4139 L 38.7312 30.4139 L 38.7312 22.9519 C 38.7312 20.8199 39.7972 19.7539 41.9292 19.7539 C 42.3192 19.7539 42.5792 19.7799 43.0732 19.8579 L 43.0732 16.1659 C 42.8652 16.1399 42.7352 16.1399 42.6312 16.1399 C 40.9672 16.1399 39.5112 17.2319 38.7312 19.1299 L 38.7312 16.3739 L 35.0912 16.3739 z M 32.6212 24.5379 C 32.6472 24.2259 32.6472 24.0959 32.6472 23.9139 C 32.6472 22.5099 32.4392 21.2099 32.1012 20.2219 C 31.1652 17.6739 28.9032 16.1399 26.0692 16.1399 C 22.0392 16.1399 19.5692 19.0519 19.5692 23.7579 C 19.5692 28.2559 22.0132 31.0119 25.9912 31.0119 C 29.1372 31.0119 31.6852 29.2179 32.4912 26.4619 L 28.9032 26.4619 C 28.4612 27.5799 27.4472 28.2299 26.1212 28.2299 C 25.0812 28.2299 24.2492 27.7879 23.7292 27.0079 C 23.3912 26.4879 23.2612 25.8639 23.2092 24.5379 L 32.6212 24.5379 z M 23.2612 22.1199 C 23.4952 19.9879 24.4052 18.9219 26.0172 18.9219 C 26.9272 18.9219 27.7592 19.3639 28.2792 20.0919 C 28.6172 20.6119 28.7732 21.1579 28.8512 22.1199 L 23.2612 22.1199 z M 17.4372 17.2319 C 17.4372 15.4899 17.0472 14.3459 16.1112 13.3059 C 14.8372 11.9019 12.7312 11.1479 10.0012 11.1479 C 5.45118 11.1479 2.82518 13.2799 2.82518 16.9719 C 2.82518 19.9099 4.30718 21.3399 8.15518 22.0679 L 10.8072 22.5879 C 13.4072 23.0819 14.3692 23.8099 14.3692 25.3439 C 14.3692 26.9299 12.9132 27.8919 10.5472 27.8919 C 7.89518 27.8919 6.41318 26.7739 6.28318 24.7459 L 2.48718 24.7459 C 2.72118 28.8019 5.50318 31.0119 10.3392 31.0119 C 15.2272 31.0119 18.1132 28.7239 18.1132 24.8759 C 18.1132 21.8859 16.6052 20.3259 13.0952 19.6499 L 10.1312 19.0779 C 7.34918 18.5319 6.54318 17.9859 6.54318 16.6079 C 6.54318 15.1779 7.81718 14.2679 9.81918 14.2679 C 12.2892 14.2679 13.6672 15.3079 13.7972 17.2319 L 17.4372 17.2319 z "
       transform="scale(2.75003,2.86714)"
       style="font-size:26;font-weight:bold;fill:#e64ca6;stroke-width:1pt;font-family:Helvetica;"
       id="path510" />
  </g>
</svg>
