<?xml version="1.0" encoding="UTF-8" standalone="no"?>
<!DOCTYPE svg PUBLIC "-//W3C//DTD SVG 20010904//EN"
"http://www.w3.org/TR/2001/REC-SVG-20010904/DTD/svg10.dtd"
[
 <!ATTLIST svg
  xmlns:xlink CDATA #FIXED "http://www.w3.org/1999/xlink">
]>
<!-- Created with Sodipodi ("http://www.sodipodi.com/") -->
<svg
   xmlns="http://www.w3.org/2000/svg"
   xmlns:xlink="http://www.w3.org/1999/xlink"
   version="1"
   x="0"
   y="0"
   width="125"
   height="125"
   id="svg101">
  <defs
     id="defs103" />
  <g
     style="font-size:12;"
     id="g148">
    <path
       d="M 6.2796 6.74281 L 6.2796 118.768 L 118.718 118.768 L 118.718 6.74281 L 6.2796 6.74281 z "
       style="fill:#999999;fill-rule:evenodd;stroke-width:0pt;"
       id="path147" />
    <path
       d="M 19.6468 10.3372 L 12.0548 10.3372 L 12.0548 13.5872 L 16.3708 13.5872 C 16.2668 14.6532 16.0068 15.3032 15.4348 15.9792 C 14.4988 17.1232 13.0688 17.7992 11.5608 17.7992 C 8.41478 17.7992 6.15278 15.0432 6.15278 11.1432 C 6.15278 7.0612 8.15478 4.5912 11.4568 4.5912 C 12.8088 4.5912 13.9528 4.9812 14.8108 5.7352 C 15.3568 6.2032 15.6428 6.6452 15.9808 7.6332 L 19.6468 7.6332 C 19.1788 3.7332 16.0068 1.2632 11.4308 1.2632 C 5.97078 1.2632 2.25278 5.2932 2.25278 11.1952 C 2.25278 16.9412 5.99678 21.1272 11.1188 21.1272 C 13.6668 21.1272 15.3828 20.2172 16.8388 18.0852 L 17.3068 20.5812 L 19.6468 20.5812 L 19.6468 10.3372 z "
       transform="scale(5.62848,5.61443)"
       style="font-size:26;font-weight:bold;fill:#e2bd00;stroke-width:1pt;font-family:Helvetica;"
       id="path146" />
  </g>
</svg>
