<?xml version="1.0" encoding="UTF-8" standalone="no"?>
<!-- Created with Sodipodi ("http://www.sodipodi.com/") -->
<svg
   xmlns:dc="http://purl.org/dc/elements/1.1/"
   xmlns:cc="http://creativecommons.org/ns#"
   xmlns:rdf="http://www.w3.org/1999/02/22-rdf-syntax-ns#"
   xmlns:svg="http://www.w3.org/2000/svg"
   xmlns="http://www.w3.org/2000/svg"
   xmlns:sodipodi="http://sodipodi.sourceforge.net/DTD/sodipodi-0.dtd"
   xmlns:inkscape="http://www.inkscape.org/namespaces/inkscape"
   version="1"
   x="0"
   y="0"
   width="125"
   height="125"
   id="svg101"
   sodipodi:version="0.32"
   inkscape:version="0.46"
   sodipodi:docname="ps-cytosine.svg"
   inkscape:output_extension="org.inkscape.output.svg.inkscape">
  <metadata
     id="metadata2433">
    <rdf:RDF>
      <cc:Work
         rdf:about="">
        <dc:format>image/svg+xml</dc:format>
        <dc:type
           rdf:resource="http://purl.org/dc/dcmitype/StillImage" />
      </cc:Work>
    </rdf:RDF>
  </metadata>
  <sodipodi:namedview
     inkscape:window-height="672"
     inkscape:window-width="640"
     inkscape:pageshadow="2"
     inkscape:pageopacity="0.0"
     guidetolerance="10.0"
     gridtolerance="10.0"
     objecttolerance="10.0"
     borderopacity="1.0"
     bordercolor="#666666"
     pagecolor="#ffffff"
     id="base"
     showgrid="false"
     inkscape:zoom="3.712"
     inkscape:cx="62.5"
     inkscape:cy="62.5"
     inkscape:window-x="668"
     inkscape:window-y="82"
     inkscape:current-layer="svg101" />
  <defs
     id="defs103">
    <inkscape:perspective
       sodipodi:type="inkscape:persp3d"
       inkscape:vp_x="0 : 62.5 : 1"
       inkscape:vp_y="0 : 1000 : 0"
       inkscape:vp_z="125 : 62.5 : 1"
       inkscape:persp3d-origin="62.5 : 41.666667 : 1"
       id="perspective2435" />
  </defs>
  <g
     style="font-size:12;"
     id="g165">
    <path
       d="M 6.2796 6.74281 L 6.2796 118.768 L 118.718 118.768 L 118.718 6.74281 L 6.2796 6.74281 z "
       style="fill:#999999;fill-rule:evenodd;stroke-width:0pt;"
       id="path164" />
    <path
       d="M 17.6583 7.9972 C 17.5283 6.3592 17.1903 5.3192 16.3843 4.2532 C 14.9283 2.3292 12.5883 1.2632 9.75431 1.2632 C 4.39831 1.2632 1.07031 5.0852 1.07031 11.2212 C 1.07031 17.3052 4.37231 21.1272 9.65031 21.1272 C 14.3563 21.1272 17.5023 18.3972 17.7363 14.0552 L 13.9403 14.0552 C 13.7063 16.4732 12.1723 17.8512 9.75431 17.8512 C 6.73831 17.8512 4.97031 15.4072 4.97031 11.2732 C 4.97031 7.0872 6.81631 4.5912 9.88431 4.5912 C 11.2363 4.5912 12.3543 5.0592 13.0823 5.9692 C 13.4983 6.4892 13.7063 6.9832 13.9403 7.9972 L 17.6583 7.9972 z "
       transform="scale(6.69663,5.61443)"
       style="font-size:26;font-weight:bold;fill:#2d2dc8;stroke-width:1pt;font-family:Helvetica;"
       id="path163" />
  </g>
  <text
     xml:space="preserve"
     style="font-size:51.34014893px;font-style:normal;font-variant:normal;font-weight:normal;font-stretch:normal;text-align:start;line-height:125%;writing-mode:lr-tb;text-anchor:start;fill:#800080;fill-opacity:1;stroke:none;stroke-width:1px;stroke-linecap:butt;stroke-linejoin:miter;stroke-opacity:1;font-family:Nimbus Roman No9 L;-inkscape-font-specification:Nimbus Roman No9 L"
     x="20.729597"
     y="78.607834"
     id="text2383"
     sodipodi:linespacing="125%"><tspan
       sodipodi:role="line"
       id="tspan2385"
       x="20.729597"
       y="78.607834">P=S</tspan></text>
</svg>
