<?xml version="1.0" encoding="UTF-8" standalone="no"?>
<!-- Created with Inkscape (http://www.inkscape.org/) -->

<svg
   xmlns:dc="http://purl.org/dc/elements/1.1/"
   xmlns:cc="http://creativecommons.org/ns#"
   xmlns:rdf="http://www.w3.org/1999/02/22-rdf-syntax-ns#"
   xmlns:svg="http://www.w3.org/2000/svg"
   xmlns="http://www.w3.org/2000/svg"
   xmlns:sodipodi="http://sodipodi.sourceforge.net/DTD/sodipodi-0.dtd"
   xmlns:inkscape="http://www.inkscape.org/namespaces/inkscape"
   width="1.4685168mm"
   height="3.6504412mm"
   viewBox="0 0 1.4685168 3.6504412"
   version="1.1"
   id="svg56"
   inkscape:version="0.92.3 (2405546, 2018-03-11)"
   sodipodi:docname="right-mouse-button.svg">
  <defs
     id="defs50" />
  <sodipodi:namedview
     id="base"
     pagecolor="#ffffff"
     bordercolor="#666666"
     borderopacity="1.0"
     inkscape:pageopacity="0.0"
     inkscape:pageshadow="2"
     inkscape:zoom="32.45602"
     inkscape:cx="3.5876623"
     inkscape:cy="5.6114719"
     inkscape:document-units="mm"
     inkscape:current-layer="layer1"
     showgrid="false"
     fit-margin-top="0"
     fit-margin-left="0"
     fit-margin-right="0"
     fit-margin-bottom="0" />
  <metadata
     id="metadata53">
    <rdf:RDF>
      <cc:Work
         rdf:about="">
        <dc:format>image/svg+xml</dc:format>
        <dc:type
           rdf:resource="http://purl.org/dc/dcmitype/StillImage" />
        <dc:title />
      </cc:Work>
    </rdf:RDF>
  </metadata>
  <g
     inkscape:label="Layer 1"
     inkscape:groupmode="layer"
     id="layer1"
     transform="translate(-116.43836,-134.91288)">
    <g
       id="g4684"
       inkscape:export-filename="/home/rusconi/devel/msxpertsuite/development/doc/figures/right-mouse-button.png"
       inkscape:export-xdpi="299.978"
       inkscape:export-ydpi="299.978"
       transform="matrix(1.4341625,0,0,1.4341625,-10.37704,13.48403)"
       style="stroke-width:0.06380446;stroke-miterlimit:4;stroke-dasharray:none">
      <g
         style="stroke:#000000;stroke-width:2.33593965;stroke-miterlimit:4;stroke-dasharray:none;stroke-opacity:1"
         inkscape:export-ydpi="299.978"
         inkscape:export-xdpi="299.978"
         transform="matrix(0.02731426,0,0,0.02731426,86.425826,83.616588)"
         id="g4616">
        <g
           style="stroke:#000000;stroke-width:2.33593965;stroke-miterlimit:4;stroke-dasharray:none;stroke-opacity:1"
           id="g4507">
          <path
             sodipodi:nodetypes="sssss"
             inkscape:connector-curvature="0"
             id="path4485"
             d="m 109.4556,68.295395 c 0,17.180715 -7.86658,31.108436 -17.570506,31.108435 -9.703922,0 -17.570505,-13.927721 -17.570505,-31.108435 0,-17.180714 7.866583,-28.462602 17.570505,-28.462602 9.703926,-1e-6 17.570506,11.281887 17.570506,28.462602 z"
             style="color:#000000;display:inline;overflow:visible;visibility:visible;fill:none;fill-rule:evenodd;stroke:#000000;stroke-width:2.33593965;stroke-linecap:butt;stroke-linejoin:round;stroke-miterlimit:4;stroke-dasharray:none;stroke-dashoffset:0;stroke-opacity:1;marker:none;enable-background:accumulate" />
          <path
             sodipodi:nodetypes="caac"
             inkscape:connector-curvature="0"
             id="path4492"
             d="m 92.173141,99.403827 c 0,0 15.145519,5.669433 13.825969,11.521643 -1.52706,6.77256 -17.095321,-1.04554 -20.174067,5.17706 -2.405749,4.86238 6.348098,14.98582 6.348098,14.98582"
             style="fill:none;fill-rule:evenodd;stroke:#000000;stroke-width:2.33593965;stroke-linecap:butt;stroke-linejoin:miter;stroke-miterlimit:4;stroke-dasharray:none;stroke-opacity:1" />
          <path
             style="fill:none;fill-rule:evenodd;stroke:#000000;stroke-width:2.33593965;stroke-linecap:butt;stroke-linejoin:miter;stroke-miterlimit:4;stroke-dasharray:none;stroke-opacity:1"
             d="M 98.137296,41.41199 V 74.187965 H 109.11644"
             id="path4496"
             inkscape:connector-curvature="0"
             sodipodi:nodetypes="ccc" />
          <path
             sodipodi:nodetypes="cc"
             inkscape:connector-curvature="0"
             id="path4500"
             d="m 75.113272,74.187965 27.204738,0"
             style="fill:none;fill-rule:evenodd;stroke:#000000;stroke-width:2.33593965;stroke-linecap:butt;stroke-linejoin:miter;stroke-miterlimit:4;stroke-dasharray:none;stroke-opacity:1" />
        </g>
        <g
           style="stroke:#000000;stroke-width:2.33593965;stroke-miterlimit:4;stroke-dasharray:none;stroke-opacity:1"
           id="g4565"
           transform="matrix(-1,0,0,1,125.86947,0)">
          <path
             style="fill:#2a292a;fill-opacity:1;fill-rule:evenodd;stroke:#000000;stroke-width:2.33593965;stroke-linecap:butt;stroke-linejoin:miter;stroke-miterlimit:4;stroke-dasharray:none;stroke-opacity:1"
             d="m 16.827461,74.188394 c -0.206648,-1.908118 -0.314834,-3.87819 -0.314834,-5.892999 0,-13.240531 4.672126,-22.977628 11.256719,-26.747397"
             id="path4561"
             inkscape:connector-curvature="0" />
          <path
             style="fill:#2a292a;fill-opacity:1;fill-rule:evenodd;stroke:#000000;stroke-width:2.33593965;stroke-linecap:butt;stroke-linejoin:miter;stroke-miterlimit:4;stroke-dasharray:none;stroke-opacity:1"
             d="M 27.713531,41.41199 V 74.187965 H 16.734416"
             id="path4563"
             inkscape:connector-curvature="0" />
        </g>
      </g>
    </g>
  </g>
</svg>
