<?xml version="1.0" encoding="UTF-8" standalone="no"?>
<!-- Created with Inkscape (http://www.inkscape.org/) -->
<svg
   xmlns:dc="http://purl.org/dc/elements/1.1/"
   xmlns:cc="http://web.resource.org/cc/"
   xmlns:rdf="http://www.w3.org/1999/02/22-rdf-syntax-ns#"
   xmlns:svg="http://www.w3.org/2000/svg"
   xmlns="http://www.w3.org/2000/svg"
   xmlns:xlink="http://www.w3.org/1999/xlink"
   xmlns:sodipodi="http://sodipodi.sourceforge.net/DTD/sodipodi-0.dtd"
   xmlns:inkscape="http://www.inkscape.org/namespaces/inkscape"
   width="744.09448819"
   height="1052.3622047"
   id="svg2"
   sodipodi:version="0.32"
   inkscape:version="0.44.1"
   sodipodi:docbase="/home/rusconi/devel/massxtreme/massgui/images"
   sodipodi:docname="redled.svg">
  <defs
     id="defs4">
    <linearGradient
       id="linearGradient2760">
      <stop
         style="stop-color:#ffe5e5;stop-opacity:1;"
         offset="0"
         id="stop2762" />
      <stop
         style="stop-color:red;stop-opacity:1;"
         offset="1"
         id="stop2764" />
    </linearGradient>
    <radialGradient
       inkscape:collect="always"
       xlink:href="#linearGradient2760"
       id="radialGradient2771"
       cx="208.57143"
       cy="326.64789"
       fx="208.57143"
       fy="326.64789"
       r="108.57143"
       gradientUnits="userSpaceOnUse" />
  </defs>
  <sodipodi:namedview
     id="base"
     pagecolor="#ffffff"
     bordercolor="#666666"
     borderopacity="1.0"
     gridtolerance="10000"
     guidetolerance="10"
     objecttolerance="10"
     inkscape:pageopacity="0.0"
     inkscape:pageshadow="2"
     inkscape:zoom="1.7181818"
     inkscape:cx="207.14286"
     inkscape:cy="727.14286"
     inkscape:document-units="px"
     inkscape:current-layer="layer1"
     inkscape:window-width="852"
     inkscape:window-height="578"
     inkscape:window-x="63"
     inkscape:window-y="129" />
  <metadata
     id="metadata7">
    <rdf:RDF>
      <cc:Work
         rdf:about="">
        <dc:format>image/svg+xml</dc:format>
        <dc:type
           rdf:resource="http://purl.org/dc/dcmitype/StillImage" />
      </cc:Work>
    </rdf:RDF>
  </metadata>
  <g
     inkscape:label="Layer 1"
     inkscape:groupmode="layer"
     id="layer1">
    <path
       sodipodi:type="arc"
       style="fill:url(#radialGradient2771);fill-opacity:1.0;stroke:none;stroke-width:1.5;stroke-miterlimit:4;stroke-dasharray:none;stroke-opacity:1"
       id="path1872"
       sodipodi:cx="208.57143"
       sodipodi:cy="326.64789"
       sodipodi:rx="108.57143"
       sodipodi:ry="108.57143"
       d="M 317.14285 326.64789 A 108.57143 108.57143 0 1 1  100,326.64789 A 108.57143 108.57143 0 1 1  317.14285 326.64789 z" />
  </g>
</svg>
