<?xml version="1.0" encoding="UTF-8" standalone="no"?>
<!-- Created with Sodipodi ("http://www.sodipodi.com/") -->
<svg
   xmlns:dc="http://purl.org/dc/elements/1.1/"
   xmlns:cc="http://web.resource.org/cc/"
   xmlns:rdf="http://www.w3.org/1999/02/22-rdf-syntax-ns#"
   xmlns:svg="http://www.w3.org/2000/svg"
   xmlns="http://www.w3.org/2000/svg"
   xmlns:sodipodi="http://sodipodi.sourceforge.net/DTD/sodipodi-0.dtd"
   xmlns:inkscape="http://www.inkscape.org/namespaces/inkscape"
   version="1"
   x="0"
   y="0"
   width="125"
   height="125"
   id="svg101"
   sodipodi:version="0.32"
   inkscape:version="0.45.1"
   sodipodi:docname="methionine.svg"
   sodipodi:docbase="/home/rusconi/devel/massxpert/data/pol-chem-defs/protein-1-letter"
   inkscape:output_extension="org.inkscape.output.svg.inkscape">
  <metadata
     id="metadata2694">
    <rdf:RDF>
      <cc:Work
         rdf:about="">
        <dc:format>image/svg+xml</dc:format>
        <dc:type
           rdf:resource="http://purl.org/dc/dcmitype/StillImage" />
      </cc:Work>
    </rdf:RDF>
  </metadata>
  <sodipodi:namedview
     inkscape:window-height="571"
     inkscape:window-width="745"
     inkscape:pageshadow="2"
     inkscape:pageopacity="0.0"
     guidetolerance="10.0"
     gridtolerance="10.0"
     objecttolerance="10.0"
     borderopacity="1.0"
     bordercolor="#666666"
     pagecolor="#ffffff"
     id="base"
     inkscape:zoom="3.024"
     inkscape:cx="62.5"
     inkscape:cy="62.5"
     inkscape:window-x="755"
     inkscape:window-y="0"
     inkscape:current-layer="svg101" />
  <defs
     id="defs103" />
  <path
     id="path300"
     style="font-size:26px;font-weight:bold;fill:#e2bd00;stroke-width:1pt;font-family:Helvetica"
     d="M 30.58303,31.936911 L 51.139501,118.58845 L 74.677444,118.58845 L 94.920075,31.936911 L 94.920075,118.58845 L 118.45802,118.58845 L 118.45802,7.3754726 L 82.994183,7.3754726 L 62.908472,95.857674 L 42.195082,7.3754726 L 7.0450874,7.3754726 L 7.0450874,118.58845 L 30.58303,118.58845 L 30.58303,31.936911 z " />
</svg>
