<?xml version="1.0" encoding="UTF-8" standalone="no"?>
<!-- Created with Sodipodi ("http://www.sodipodi.com/") -->
<svg
   xmlns:dc="http://purl.org/dc/elements/1.1/"
   xmlns:cc="http://web.resource.org/cc/"
   xmlns:rdf="http://www.w3.org/1999/02/22-rdf-syntax-ns#"
   xmlns:svg="http://www.w3.org/2000/svg"
   xmlns="http://www.w3.org/2000/svg"
   xmlns:sodipodi="http://sodipodi.sourceforge.net/DTD/sodipodi-0.dtd"
   xmlns:inkscape="http://www.inkscape.org/namespaces/inkscape"
   version="1"
   x="0"
   y="0"
   width="125"
   height="125"
   id="svg101"
   sodipodi:version="0.32"
   sodipodi:docname="proline.svg"
   sodipodi:docbase="/home/rusconi/devel/massxpert/data/pol-chem-defs/protein-1-letter"
   inkscape:version="0.45.1"
   inkscape:output_extension="org.inkscape.output.svg.inkscape">
  <metadata
     id="metadata2781">
    <rdf:RDF>
      <cc:Work
         rdf:about="">
        <dc:format>image/svg+xml</dc:format>
        <dc:type
           rdf:resource="http://purl.org/dc/dcmitype/StillImage" />
      </cc:Work>
    </rdf:RDF>
  </metadata>
  <sodipodi:namedview
     id="base"
     inkscape:zoom="3.024"
     inkscape:cx="62.5"
     inkscape:cy="62.5"
     inkscape:window-width="745"
     inkscape:window-height="571"
     inkscape:window-x="755"
     inkscape:window-y="0"
     inkscape:current-layer="svg101" />
  <defs
     id="defs103" />
  <path
     id="path112"
     style="font-size:26px;font-weight:bold;fill:#e2bd00;stroke-width:1pt;font-family:Helvetica"
     d="M 43.417258,78.752787 L 72.120637,78.752787 C 92.688919,78.752787 105.88946,64.170796 105.88946,41.453589 C 105.88946,19.043372 93.149403,6.7638003 69.818218,6.7638003 L 20.393062,6.7638003 L 20.393062,118.66139 L 43.417258,118.66139 L 43.417258,78.752787 z M 43.417258,59.565957 L 43.417258,25.95063 L 64.906389,25.95063 C 77.18596,25.95063 82.865262,31.322943 82.865262,42.835041 C 82.865262,54.193644 77.18596,59.565957 64.906389,59.565957 L 43.417258,59.565957 z " />
</svg>
